

define TANH_block ( P1  P2 ) 
;parameters 
SDD:SDD1P1  N__9 0  I[1,0]=tanh(_v1)  
#uselib "ckt" , "CCVS"
CCVS:SRC4  N__0 N__9 P2 0 G=1 Ohm T=0.0 nsec R1=0 Ohm R2=0 Ohm F=0.0 GHz 
#uselib "ckt" , "VCVS"
VCVS:SRC5  P1 0 N__0 0 G=1 T=0.0 nsec R1=1e100 Ohm R2=0 Ohm F=0.0 GHz 
end TANH_block
TANH_block:I__8  in nl 
R:R3  nl N__6 R=50 Ohm Noise=yes 
R:R4  out 0 R=50 Ohm Noise=yes 
C:C4  N__3 0 C=24.077142 pF 
C:C1  N__6 0 C=23.740975 pF 
C:C2  N__6 N__4 C=2.205522 pF 
C:C3  N__4 N__3 C=2.347174 pF 
C:C5  N__15 out C=4.081535 fF 
L:L5  N__3 N__15 L=62.066923 nH R=1e-12 Ohm Noise=yes  
L:L2  N__6 N__4 L=107.929057 pH R=1e-12 Ohm Noise=yes  
L:L1  N__6 0 L=10.670509 pH R=1e-12 Ohm Noise=yes  
L:L3  N__4 N__3 L=114.860937 pH R=1e-12 Ohm Noise=yes  
L:L4  N__3 0 L=10.521526 pH R=1e-12 Ohm Noise=yes  
