#define TT TT
#ifndef inc_V__DesignKits_UMC180_ADS_models_umc18config_net
#define inc_V__DesignKits_UMC180_ADS_models_umc18config_net inc_V__DesignKits_UMC180_ADS_models_umc18config_net
#include "V:\DesignKits\UMC180_ADS\models\umc18config.net"
#endif
#undef TT


"p_18_mm":Mtest  drain gate source bulk Length=L Width=W Mode=1 Noise=yes 